%YAML 1.1
%TAG !u! tag:unity3d.com,2011:
--- !u!1045 &1
EditorBuildSettings:
  m_ObjectHideFlags: 0
  serializedVersion: 2
  m_Scenes:
  - enabled: 1
    path: Assets/Menu.unity
    guid: 75db54fdaaf4091439d6eddc3465516c
  - enabled: 1
    path: Assets/Menu2.unity
    guid: b3e30a5addbfd854c94207c002267d16
  - enabled: 1
    path: Assets/Lvl1.unity
    guid: d3ec9c374b6053947914c6b0126e0a5b
  - enabled: 1
    path: Assets/Lvl2.unity
    guid: 019448041b82f7d40b415705d6e2b7a5
  - enabled: 1
    path: Assets/lvl3.unity
    guid: e62b753d57a7d334189535bd1a0965ec
  - enabled: 1
    path: Assets/Scene.unity
    guid: 4c32ffcf470758a4198895b877d2efc2
  m_configObjects: {}
